Digital behavioral data - 🔨 Automatic text analysis in R
…
# Create tidy data
tweets_tidy <- tweets_detox %>% 
  mutate(
    text = str_remove_all(text, remove_reg)) %>% 
    tidytext::unnest_tokens("text", text) %>% 
    filter(!text %in% tidytext::stop_words$word)

# Preview
tweets_tidy %>% 
  select(tweet_id, user_name, text) %>% 
  print(n = 15)

# A tibble: 639,459 × 3
   tweet_id   user_name      text        
   <chr>      <chr>          <chr>       
 1 5777201122 Pete Blackshaw blackberry  
 2 5777201122 Pete Blackshaw iphone      
 3 5777201122 Pete Blackshaw read        
 4 5777201122 Pete Blackshaw pew         
 5 5777201122 Pete Blackshaw report      
 6 5777201122 Pete Blackshaw teens       
 7 5777201122 Pete Blackshaw distracted  
 8 5777201122 Pete Blackshaw driving     
 9 5777201122 Pete Blackshaw http        
10 5777201122 Pete Blackshaw bit.ly      
11 5777201122 Pete Blackshaw 4abr5p      
12 5777201122 Pete Blackshaw digitaldetox
13 4814687834 Andrew Gerrard dawn_wylie  
14 4814687834 Andrew Gerrard prompted    
15 4814687834 Andrew Gerrard question    
# ℹ 639,444 more rows
…
# Create summarized data
tweets_summarized <- tweets_tidy %>% 
  count(tweet_id, text) 

# Preview 
tweets_summarized %>% 
  print(n = 15)

# A tibble: 592,499 × 3
   tweet_id            text              n
   <chr>               <chr>         <int>
 1 1000009901563838465 bite              1
 2 1000009901563838465 detox             1
 3 1000009901563838465 digital           1
 4 1000009901563838465 digitaldetox      1
 5 1000009901563838465 enjoy             2
 6 1000009901563838465 fly               1
 7 1000009901563838465 happitizer        1
 8 1000009901563838465 happitizers       1
 9 1000009901563838465 https             1
10 1000009901563838465 inspiration       1
11 1000009901563838465 mindgourmet       1
12 1000009901563838465 mindgourmet’s     1
13 1000009901563838465 sized             1
14 1000009901563838465 t.co              1
15 1000009901563838465 taste             1
# ℹ 592,484 more rows
…
