Digital behavioral data - 🔨 Text as data in R
…
# Create tidy data
tweets_tidy <- tweets_detox %>% 
    # Remove HTML entities
    mutate(text = str_remove_all(text, remove_reg)) %>% 
    # Tokenization
    tidytext::unnest_tokens("text", text) %>% 
    # Remove stopwords
    filter(!text %in% tidytext::stop_words$word)

# Preview
tweets_tidy %>% 
    select(tweet_id, user_username, text) %>% 
    print(n = 5)

# A tibble: 639,459 × 3
  tweet_id   user_username text      
  <chr>      <chr>         <chr>     
1 5777201122 pblackshaw    blackberry
2 5777201122 pblackshaw    iphone    
3 5777201122 pblackshaw    read      
4 5777201122 pblackshaw    pew       
5 5777201122 pblackshaw    report    
# ℹ 639,454 more rows

Count token frequency

Summarize all tokens over all tweets

# Create summarized data
tweets_summarized <- tweets_tidy %>% 
  count(text, sort = TRUE) 

# Preview Top 15 token
tweets_summarized %>% 
    print(n = 15)

# A tibble: 87,172 × 2
   text             n
   <chr>        <int>
 1 t.co         57530
 2 https        52890
 3 digitaldetox 46642
 4 digital       8521
 5 detox         6623
 6 time          6000
 7 http          4674
 8 phone         4213
 9 unplug        4021
10 day           2939
11 life          2548
12 social        2449
13 mindfulness   2408
14 media         2264
15 technology    2065
# ℹ 87,157 more rows
…
Count word pairs within tweets

# Create word paris
tweets_word_pairs <- tweets_tidy %>% 
    widyr::pairwise_count(
        text,
        tweet_id,
        sort = TRUE)

# Preview
tweets_word_pairs %>% 
    print(n = 15)

# A tibble: 3,466,216 × 3
   item1        item2            n
   <chr>        <chr>        <dbl>
 1 t.co         digitaldetox 40640
 2 digitaldetox t.co         40640
 3 t.co         https        36605
 4 https        t.co         36605
 5 https        digitaldetox 36486
 6 digitaldetox https        36486
 7 digital      digitaldetox  7791
 8 digitaldetox digital       7791
 9 t.co         digital       7365
10 digital      t.co          7365
11 https        digital       6856
12 digital      https         6856
13 detox        digitaldetox  6004
14 digitaldetox detox         6004
15 t.co         detox         5672
# ℹ 3,466,201 more rows
…
# Create word correlation
tweets_pairs_corr <- tweets_tidy %>% 
    group_by(text) %>% 
    filter(n() >= 300) %>% 
    pairwise_cor(
        text, 
        tweet_id, 
        sort = TRUE)

# Preview
tweets_pairs_corr %>% 
    print(n = 15)

# A tibble: 41,820 × 3
   item1           item2           correlation
   <chr>           <chr>                 <dbl>
 1 jocelyn         brewer                0.999
 2 brewer          jocelyn               0.999
 3 jocelyn         discusses             0.983
 4 discusses       jocelyn               0.983
 5 discusses       brewer                0.982
 6 brewer          discusses             0.982
 7 icphenomenallyu discuss               0.981
 8 discuss         icphenomenallyu       0.981
 9 taniamulry      wealth                0.979
10 wealth          taniamulry            0.979
11 jocelyn         nutrition             0.968
12 nutrition       jocelyn               0.968
13 nutrition       brewer                0.967
14 brewer          nutrition             0.967
15 discusses       nutrition             0.951
# ℹ 41,805 more rows
…
Link word sentiment to tidy data

tweets_sentiment <- tweets_tidy %>% 
  inner_join(
     get_sentiments("bing"),
     by = c("text" = "word"),
     relationship = "many-to-many") %>% 
  count(tweet_id, sentiment) %>% 
  pivot_wider(names_from = sentiment, values_from = n, values_fill = 0) %>% 
  mutate(sentiment = positive - negative)
  
# Check
tweets_sentiment 

# A tibble: 24,372 × 4
   tweet_id            positive negative sentiment
   <chr>                  <int>    <int>     <int>
 1 1000009901563838465        3        0         3
 2 1000038819520008193        1        0         1
 3 1000042717492187136        4        0         4
 4 1000043574673715203        1        1         0
 5 1000075155891281925        4        0         4
 6 1000086637987139590        1        0         1
 7 1000094334660825088        1        0         1
 8 1000133715194920960        1        0         1
 9 1000255467434729472        0        1        -1
10 1000271209353895938        1        1         0
# ℹ 24,362 more rows
…
