Digital behavioral data - Exercise 03: 🔨 Working with R
…
actor_1_age
The age of the older actor when the film was released

actor_2_age
The age of the younger actor when the film was released

# Import data from URL
age_gaps <- read_csv("http://hollywoodagegap.com/movies.csv") %>% 
  janitor::clean_names()

# Check data set
age_gaps

# A tibble: 1,176 × 12
   movie_name   release_year director age_difference actor_1_name actor_1_gender
   <chr>               <dbl> <chr>             <dbl> <chr>        <chr>         
 1 Harold and …         1971 Hal Ash…             52 Bud Cort     man           
 2 Venus                2006 Roger M…             50 Peter O'Too… man           
 3 The Quiet A…         2002 Phillip…             49 Michael Cai… man           
 4 The Big Leb…         1998 Joel Co…             45 David Huddl… man           
 5 Beginners            2010 Mike Mi…             43 Christopher… man           
 6 Poison Ivy           1992 Katt Sh…             42 Tom Skerritt man           
 7 Whatever Wo…         2009 Woody A…             40 Larry David  man           
 8 Entrapment           1999 Jon Ami…             39 Sean Connery man           
 9 Husbands an…         1992 Woody A…             38 Woody Allen  man           
10 Magnolia             1999 Paul Th…             38 Jason Robar… man           
# ℹ 1,166 more rows
# ℹ 6 more variables: actor_1_birthdate <date>, actor_1_age <dbl>,
#   actor_2_name <chr>, actor_2_gender <chr>, actor_2_birthdate <chr>,
#   actor_2_age <dbl>
…
In welchen Filmen ist der Altersunterschied am höchsten?

age_gaps_correct %>% 
    arrange(desc(age_difference)) %>% 
    select(movie_name, age_difference, release_year) 

# A tibble: 1,176 × 3
   movie_name         age_difference release_year
   <chr>                       <dbl>        <dbl>
 1 Harold and Maude               52         1971
 2 Venus                          50         2006
 3 The Quiet American             49         2002
 4 The Big Lebowski               45         1998
 5 Beginners                      43         2010
 6 Poison Ivy                     42         1992
 7 Whatever Works                 40         2009
 8 Entrapment                     39         1999
 9 Husbands and Wives             38         1992
10 Magnolia                       38         1999
# ℹ 1,166 more rows
…
