Digital behavioral data - Showcase 10: 🔨 Automatic analysis of text in R
…
# Merge with original data
tweets_detox_topics <- tweets_detox %>% 
  filter(!(tweet_id %in% empty_docs_ids)) %>% 
  bind_cols(gammas) %>% 
  select(-document)

# Preview
tweets_detox_topics 

# A tibble: 46,574 × 50
   tweet_id   user_username text         created_at          in_reply_to_user_id
   <chr>      <chr>         <chr>        <dttm>              <chr>              
 1 5777201122 pblackshaw    Put down yo… 2009-11-16 22:03:12 <NA>               
 2 4814687834 andrewgerrard @Dawn_Wylie… 2009-10-12 18:48:30 18003723           
 3 4813781509 pblackshaw    Is Social M… 2009-10-12 17:55:57 <NA>               
 4 3351604894 KurtyD        Google gear… 2009-08-16 23:20:53 <NA>               
 5 3350930292 KurtyD        Wifi on the… 2009-08-16 22:31:22 <NA>               
 6 3349372574 KurtyD        Adios amigo… 2009-08-16 20:37:03 <NA>               
 7 2722418665 evelynanne    Ok, I'm hea… 2009-07-19 14:31:16 <NA>               
 8 1959962952 halriley      I'm thinkin… 2009-05-29 14:11:36 <NA>               
 9 1638612063 deconst       Interesting… 2009-04-28 13:03:14 <NA>               
10 1626172818 deconst       Back from #… 2009-04-27 03:55:25 <NA>               
# ℹ 46,564 more rows
# ℹ 45 more variables: author_id <chr>, lang <chr>, possibly_sensitive <lgl>,
#   conversation_id <chr>, user_created_at <chr>, user_protected <lgl>,
#   user_name <chr>, user_verified <lgl>, user_description <chr>,
#   user_location <chr>, user_url <chr>, user_profile_image_url <chr>,
#   user_pinned_tweet_id <chr>, retweet_count <int>, like_count <int>,
#   quote_count <int>, user_tweet_count <int>, user_list_count <int>, …
…
